…
### Retrieve data structures

#### Retrieve all available codelists in a given space

``` r
library(dotstatR)
retrieve_structure(environment = "qa",
                   data_space = "design",
                   structure = "codelist") |>
  parse_codelists()
#> # A tibble: 55 × 8
#>    id                agencyID version is_final is_external url   name_en desc_en
#>    <chr>             <chr>    <chr>   <lgl>    <lgl>       <chr> <chr>   <chr>  
#>  1 CL_URBANISATION   IAEG-SD… 1.10    TRUE     TRUE        http… Degree…  <NA>  
#>  2 CL_LOCATION       OECD     1.0     TRUE     TRUE        http… Country  <NA>  
#>  3 CL_SNA_TABLE1__M… OECD     1.0     TRUE     TRUE        http… Measure  <NA>  
#>  4 CL_SNA_TABLE1__O… OECD     1.0     TRUE     TRUE        http… Observ…  <NA>  
#>  5 CL_SNA_TABLE1__T… OECD     1.0     TRUE     TRUE        http… Transa…  <NA>  
#>  6 CL_SNA_TABLE1__U… OECD     1.0     TRUE     TRUE        http… Unit o…  <NA>  
#>  7 CL_SNA_TABLE1__U… OECD     1.0     TRUE     TRUE        http… Multip…  <NA>  
#>  8 CL_AGE            SDMX     1.0     TRUE     TRUE        http… Age     "This …
#>  9 CL_CIVIL_STATUS   SDMX     1.0     TRUE     TRUE        http… Civil … "This …
#> 10 CL_CONF_STATUS    SDMX     1.1     FALSE    TRUE        http… Confid… "This …
#> # ℹ 45 more rows
```
…
